Download Crypto Currency Data from CoinMarketCap without API • crypto2
…
As a new features in version 1.4.4. we introduced the possibility to download historical listings and listing information (add quote = TRUE).

latest_listings <- crypto_listings(which="latest", limit=10, quote=TRUE, finalWait=FALSE)
latest_listings
#> # A tibble: 5,000 × 30
#>       id name         symbol slug  cmc_rank market_pair_count circulating_supply
#>    <int> <chr>        <chr>  <chr>    <int>             <int>              <dbl>
#>  1     1 Bitcoin      BTC    bitc…        1             11665          19748503 
#>  2     2 Litecoin     LTC    lite…       19              1226          74929219.
#>  3     3 Namecoin     NMC    name…     1101                 7          14736400 
#>  4     5 Peercoin     PPC    peer…      960                41          29110837.
#>  5     8 Feathercoin  FTC    feat…     1696                12         236600238 
#>  6    16 WorldCoin W… WDC    worl…     3516                 5                 0 
#>  7    18 Digitalcoin  DGC    digi…     4616                 2                 0 
#>  8    25 Goldcoin     GLC    gold…     1949                12          43681422.
#>  9    35 Phoenixcoin  PXC    phoe…     1815                 4          91379993.
#> 10    42 Primecoin    XPM    prim…     1630                 3          50753528.
#> # ℹ 4,990 more rows
#> # ℹ 23 more variables: self_reported_circulating_supply <dbl>,
#> #   total_supply <dbl>, max_supply <dbl>, is_active <int>, last_updated <date>,
#> #   date_added <chr>, ref_currency <chr>, price <dbl>, volume24h <dbl>,
#> #   market_cap <dbl>, percent_change1h <dbl>, percent_change24h <dbl>,
#> #   percent_change7d <dbl>, percent_change30d <dbl>, percent_change60d <dbl>,
#> #   percent_change90d <dbl>, fully_dillutted_market_cap <dbl>, …

An additional feature that was added in version 1.4.5 retrieves global aggregate market statistics for CMC.

all_quotes <- crypto_global_quotes(which="historical", quote=TRUE)
#> ❯ Scraping historical global data
#> 
#> ❯ Processing historical crypto data
#> 
all_quotes
#> # A tibble: 4,143 × 17
#>    timestamp  btc_dominance eth_dominance         score USD_total_market_cap
#>    <date>             <dbl>         <dbl>         <dbl>                <dbl>
#>  1 2013-04-29          94.2             0 1367193600000           1583440000
#>  2 2013-04-30          94.4             0 1367280000000           1686950016
#>  3 2013-05-01          94.4             0 1367366400000           1637389952
#>  4 2013-05-02          94.1             0 1367452800000           1333880064
#>  5 2013-05-03          94.2             0 1367539200000           1275410048
#>  6 2013-05-04          93.9             0 1367625600000           1169469952
#>  7 2013-05-05          94.0             0 1367712000000           1335379968
#>  8 2013-05-06          94.1             0 1367798400000           1370880000
#>  9 2013-05-07          94.4             0 1367884800000           1313900032
#> 10 2013-05-08          94.4             0 1367971200000           1320509952
#> # ℹ 4,133 more rows
#> # ℹ 12 more variables: USD_total_volume24h <dbl>,
#> #   USD_total_volume24h_reported <dbl>, USD_altcoin_volume24h <dbl>,
#> #   USD_altcoin_volume24h_reported <dbl>, USD_altcoin_market_cap <dbl>,
#> #   USD_original_score <chr>, active_cryptocurrencies <int>,
#> #   active_market_pairs <int>, active_exchanges <int>,
#> #   total_cryptocurrencies <int>, total_exchanges <int>, origin_id <chr>
…
Last and least, one can get information on exchanges. For this download a list of active/inactive/untracked exchanges using exchange_list():

exchanges <- exchange_list(only_active=TRUE)
exchanges
#> # A tibble: 790 × 6
#>       id name         slug  is_active first_historical_data last_historical_data
#>    <int> <chr>        <chr>     <int> <date>                <date>              
#>  1    16 Poloniex     polo…         1 2018-04-26            2024-09-02          
#>  2    21 BTCC         btcc          1 2018-04-26            2024-09-02          
#>  3    24 Kraken       krak…         1 2018-04-26            2024-09-02          
#>  4    34 Bittylicious bitt…         1 2018-04-26            2024-09-02          
#>  5    36 CEX.IO       cex-…         1 2018-04-26            2024-09-02          
#>  6    37 Bitfinex     bitf…         1 2018-04-26            2024-09-02          
#>  7    42 HitBTC       hitb…         1 2018-04-26            2024-09-02          
#>  8    50 EXMO         exmo          1 2018-04-26            2024-09-02          
#>  9    61 Okcoin       okco…         1 2018-04-26            2024-09-02          
#> 10    68 Indodax      indo…         1 2018-04-26            2024-09-02          
#> # ℹ 780 more rows
…
