…
Alternatively, we could determine the price of these coins in other currencies. A list of such currencies is available as `fiat_list()`


```r
fiats <- fiat_list()
fiats
#> # A tibble: 93 x 4
#>       id name                 sign  symbol
#>    <int> <chr>                <chr> <chr> 
#>  1  2781 United States Dollar $     USD   
#>  2  2782 Australian Dollar    $     AUD   
#>  3  2783 Brazilian Real       R$    BRL   
#>  4  2784 Canadian Dollar      $     CAD   
#>  5  2785 Swiss Franc          Fr    CHF   
#>  6  2786 Chilean Peso         $     CLP   
#>  7  2787 Chinese Yuan         <U+00A5>     CNY   
#>  8  2788 Czech Koruna         K<U+010D>    CZK   
#>  9  2789 Danish Krone         kr    DKK   
#> 10  2790 Euro                 <U+20AC>     EUR   
#> # ... with 83 more rows
```
…
Last and least, one can get information on exchanges. For this download a list of active/inactive/untracked exchanges using `exchange_list()`:


```r
exchanges <- exchange_list(only_active=TRUE)
exchanges
#> # A tibble: 527 x 6
#>       id name         slug         is_active first_historical_data last_historical_data
#>    <int> <chr>        <chr>            <int> <date>                <date>              
#>  1    16 Poloniex     poloniex             1 2018-04-26            2022-10-04          
#>  2    21 BTCC         btcc                 1 2018-04-26            2022-10-04          
#>  3    22 Bittrex      bittrex              1 2018-04-26            2022-10-04          
#>  4    24 Kraken       kraken               1 2018-04-26            2022-10-04          
#>  5    34 Bittylicious bittylicious         1 2018-04-26            2022-10-04          
#>  6    36 CEX.IO       cex-io               1 2018-04-26            2022-10-04          
#>  7    37 Bitfinex     bitfinex             1 2018-04-26            2022-10-04          
#>  8    42 HitBTC       hitbtc               1 2018-04-26            2022-10-04          
#>  9    50 EXMO         exmo                 1 2018-04-26            2022-10-04          
#> 10    61 Okcoin       okcoin               1 2018-04-26            2022-10-04          
#> # ... with 517 more rows
```
…
```r
ex_info %>% select(contains("spot"))
#> # A tibble: 2 x 2
#>   spot_volume_usd spot_volume_last_updated
#>             <dbl> <dttm>                  
#> 1      615726720. 2022-10-04 18:55:16     
#> 2    14543787127. 2022-10-04 18:55:16
```
or the fiat currencies allowed:


```r
ex_info %>% select(slug,fiats) %>% tidyr::unnest(fiats)
#> # A tibble: 53 x 2
#>    slug    value
#>    <chr>   <chr>
#>  1 kraken  USD  
#>  2 kraken  EUR  
#>  3 kraken  GBP  
#>  4 kraken  CAD  
#>  5 kraken  JPY  
#>  6 kraken  CHF  
#>  7 kraken  AUD  
#>  8 binance AED  
#>  9 binance ARS  
#> 10 binance AUD  
#> # ... with 43 more rows
```
…
