…
We can also download historical listings and listing information (add
`quote = TRUE`):

``` r
latest_listings <- crypto_listings(which="latest", limit=10, quote=TRUE, finalWait=FALSE)
latest_listings
#> # A tibble: 5,001 × 33
#>       id name        symbol slug        market_pair_count circulating_supply
#>    <int> <chr>       <chr>  <chr>                   <int>              <dbl>
#>  1     1 Bitcoin     BTC    bitcoin                 12564          19993700 
#>  2     2 Litecoin    LTC    litecoin                 1507          76881714.
#>  3     3 Namecoin    NMC    namecoin                    7          14736400 
#>  4     5 Peercoin    PPC    peercoin                   43          30066955.
#>  5     8 Feathercoin FTC    feathercoin                12         236600238 
#>  6    22 Luckycoin   LKY    luckycoin                  10          19204751 
#>  7    25 Goldcoin    GLC    goldcoin                   12          43681422.
#>  8    26 Junkcoin    JKC    junkcoin                    4          17843261 
#>  9    35 Phoenixcoin PXC    phoenixcoin                 4          93172468.
#> 10    42 Primecoin   XPM    primecoin                   6          57040070.
#> # ℹ 4,991 more rows
#> # ℹ 27 more variables: self_reported_circulating_supply <dbl>,
#> #   total_supply <dbl>, is_active <int>, last_updated <date>, date_added <chr>,
#> #   wrapped_staked_mc_rank <int>, is_cmc20sponsored <lgl>, cmc_rank <int>,
#> #   max_supply <dbl>, ref_currency <chr>, price <dbl>, volume24h <dbl>,
#> #   volume_percent_change <dbl>, market_cap <dbl>, percent_change1h <dbl>,
#> #   percent_change24h <dbl>, percent_change7d <dbl>, percent_change30d <dbl>, …
```

[`crypto_global_quotes()`](https://www.sebastianstoeckl.com/crypto2/dev/reference/crypto_global_quotes.md)
retrieves global aggregate market statistics for CMC:

``` r
all_quotes <- crypto_global_quotes(which="historical", quote=TRUE)
#> ❯ Scraping historical global data
#> 
#> ❯ Processing historical crypto data
#> 
all_quotes
#> # A tibble: 4,682 × 18
#>    timestamp  btc_dominance eth_dominance         score USD_total_market_cap
#>    <date>             <dbl>         <dbl>         <dbl>                <dbl>
#>  1 2013-04-29          94.2             0 1367193600000           1583440000
#>  2 2013-04-30          94.4             0 1367280000000           1686950016
#>  3 2013-05-01          94.4             0 1367366400000           1637389952
#>  4 2013-05-02          94.1             0 1367452800000           1333880064
#>  5 2013-05-03          94.2             0 1367539200000           1275410048
#>  6 2013-05-04          93.9             0 1367625600000           1169469952
#>  7 2013-05-05          94.0             0 1367712000000           1335379968
#>  8 2013-05-06          94.1             0 1367798400000           1370880000
#>  9 2013-05-07          94.4             0 1367884800000           1313900032
#> 10 2013-05-08          94.4             0 1367971200000           1320509952
#> # ℹ 4,672 more rows
#> # ℹ 13 more variables: USD_total_volume24h <dbl>,
#> #   USD_total_volume24h_reported <dbl>, USD_altcoin_volume24h <dbl>,
#> #   USD_altcoin_volume24h_reported <dbl>, USD_altcoin_market_cap <dbl>,
#> #   USD_original_score <chr>, active_cryptocurrencies <int>,
#> #   active_market_pairs <int>, active_exchanges <int>,
#> #   total_cryptocurrencies <int>, total_exchanges <int>, origin_id <chr>, …
```
…
Last and least, one can get information on exchanges. For this download
a list of active/inactive/untracked exchanges using
[`exchange_list()`](https://www.sebastianstoeckl.com/crypto2/dev/reference/exchange_list.md):

``` r
exchanges <- exchange_list(only_active=TRUE)
exchanges
#> # A tibble: 923 × 6
#>       id name         slug  is_active first_historical_data last_historical_data
#>    <int> <chr>        <chr>     <int> <date>                <date>              
#>  1    16 Poloniex     polo…         1 2018-04-26            2026-02-23          
#>  2    21 BTCC         btcc          1 2018-04-26            2026-02-23          
#>  3    24 Kraken       krak…         1 2018-04-26            2026-02-23          
#>  4    34 Bittylicious bitt…         1 2018-04-26            2026-02-23          
#>  5    36 CEX.IO       cex-…         1 2018-04-26            2026-02-23          
#>  6    37 Bitfinex     bitf…         1 2018-04-26            2026-02-23          
#>  7    42 HitBTC       hitb…         1 2018-04-26            2026-02-23          
#>  8    50 EXMO         exmo          1 2018-04-26            2026-02-23          
#>  9    61 Okcoin       okco…         1 2018-04-26            2025-06-20          
#> 10    68 Indodax      indo…         1 2018-04-26            2026-02-23          
#> # ℹ 913 more rows
```
…
``` r
ex_info %>% select(contains("fee"))
#> # A tibble: 2 × 2
#>   maker_fee taker_fee
#>       <dbl>     <dbl>
#> 1      0.02      0.05
#> 2      0.02      0.04
```

or the fiat currencies allowed:

``` r
ex_info %>% select(slug,fiats) %>% tidyr::unnest(fiats)
#> # A tibble: 95 × 2
#>    slug    fiats
#>    <chr>   <chr>
#>  1 kraken  USD  
#>  2 kraken  EUR  
#>  3 kraken  GBP  
#>  4 kraken  CHF  
#>  5 kraken  AUD  
#>  6 kraken  CAD  
#>  7 binance ARS  
#>  8 binance AUD  
#>  9 binance BRL  
#> 10 binance CHF  
#> # ℹ 85 more rows
```
…
